S00C00006D61696E2E7372656373
S11300000C9446000C9465000C9465000C946500F7
S11300100C9465000C9465000C9465000C946500C8
S11300200C9465000C9465000C9465000C946500B8
S11300300C9467000C9465000C9465000C946500A6
S11300400C9465000C9465000C9465000C94650098
S11300500C9465000C9465000C9465000C94650088
S11300600C9465000C9465000C9465000C94650078
S11300700C9465000C9465000C9465000C94650068
S11300800C9465000C9465000C94650011241FBE4B
S1130090CFEFD0E1DEBFCDBF12E0A0E0B1E0E4E3FA
S11300A0F5E100E00BBF02C007900D92A833B10741
S11300B0D9F712E0A8E3B2E001C01D92AF39B1074D
S11300C0E1F70E94CF010C94980A0C9400007894F4
S11300D01F920F920FB60F9211246F937F938F93F9
S11300E09F93809138028F5F809338028091380209
S11300F065E00E94F109992349F4809140028260ED
S11301008093400288B390E2892788BB88B390E14A
S1130110892788BB8091400284608093400280914B
S113012038028C3349F09F918F917F916F910F909A
S11301300FBE0F901F9018951092380280919D0267
S11301408F5F80939D0280919D028C3361F71092A2
S11301509D0280919E028F5F80939E0280919E02F9
S1130160883109F710929E02809139028F5F809343
S11301703902D9CF1FBC8CE08EBD84E294EF9BBDC5
S11301808ABD87B7806187BF0895FC0180913902D9
S11301906AE00E94F109805D8083809139020E94A7
S11301A0F109905D91832AE3228380919E020E944B
S11301B0F109805D838380919E020E94F109905D24
S11301C09483258380919D020E94F109805D86833A
S11301D080919D020E94F109905D97832087809110
S11301E038020E94F109805D8187809138020E9463
S11301F0F109905D928713860895282FFB0164E628
S11302000E94F109805D8083822F0E94F109292FC9
S1130210892F6AE00E94F109805D8183822F0E9408
S1130220F109905D92830895FF920F931F93CF93EA
S1130230DF93EC01F62E8A01BC0180E090E020EA15
S113024036E841E050E00E94240ADC01CB0160E181
S113025077E20E94FD09662319F4FF2009F476C0B1
S1130260605DD8016C9331E0CE0160E177E20E94D9
S1130270FD0968EE73E00E94FD09262FCE0168EEA9
S113028073E00E94FD09482FE92F222319F4332338
S113029009F457C0205DD80111962C9331E0842FC6
S11302A09E2F64E670E00E94FD09262F842F9E2F66
S11302B064E670E00E94FD09482FE92F222311F41F
S11302C03323D1F1205DD80112962C9331E0842F91
S11302D09E2F6AE070E00E94FD09662311F4332327
S11302E031F1605DD80113966C9331E0842F9E2F19
S11302F06AE070E00E94FD09882371F4332361F4FD
S113030080E2D80114968C93F8011582DF91CF9185
S11303101F910F91FF900895805DF8018483F80187
S11303201582DF91CF911F910F91FF90089580E284
S1130330D80113968C93DACF80E2D80112968C936D
S1130340C6CF80E2D80111968C93A9CF80E2F80140
S1130350808330E089CFEF92FF920F931F937C014B
S11303600DE412E0C8010E94C5008CE2809358029B
S1130370A801445F5F4FC70161E00E9414018AE055
S113038080935E028DE080935F0210926002C80148
S11303900E94C3031F910F91FF90EF900895CF9295
S11303A0DF92EF92FF920F931F93CF93DF931092FC
S11303B04002E1E6F2E0119282E0ED39F807D9F764
S11303C08FEF8BBB8ABB18BA87EF87BB12BA11BAFF
S11303D011E012B91092620088E080936100C79A1C
S11303E01FBC8CE08EBD84E294EF9BBD8ABD87B7B1
S11303F0806187BF87E690E00E94B60380E58DB9EF
S11304001EB987E690E00E94B6030E9467030E942B
S11304101A030E94200380E091E00E944203789432
S113042000E020E0C0E0D0E0FF2480E041E0C42E02
S1130430D12C3CC0C69A222319F0EE2009F479C0CD
S11304408091400282FD04C08091400281FF2CC053
S1130450809140028B7F809340028091400281FF13
S11304600DC0809140028D7F80934002802F90E0E8
S1130470019663E070E00E94110A082F013009F42C
S113048047C00130A0F58F2D90E061E04AE352E0CF
S11304900E9414010E9426038DE191E00E94420310
S11304A08AE392E00E9442032E2D812F10919D0237
S11304B0181749F0E0919D02F0E0EF59FD4F80815B
S11304C0F81A10919D0281B190E00024880F991FC1
S11304D0001C880F991F001C892F902D8C259D25A9
S11304E0EE24E394E82280FDA5CFC698A4CF023081
S11304F0D9F681E492E00E94C5000E94260389E2B5
S113050091E00E94420381E492E00E944203CCCF36
S1130510CE0161E04AE352E00E9414010E942603E6
S113052081E191E00E9442038AE392E00E94420347
S1130530BBCF2196F394E12FF0E0EF59FD4F80817A
S11305408F5F808380914002846080934002CE015B
S11305500E94AB0175CFE2E6F0E080818860808381
S11305608081877F80830895AF92BF92CF92DF927C
S1130570EF92FF920F931F93811181E08FB9779BC4
S1130580FECF6FB9779BFECF809162008860809325
S1130590620080916200877F809362004423B1F1FE
S11305A0642F70E080E090E00E9483075B016C019F
S11305B020E030E04AE755E40E94A5057B018C0168
S11305C020E030E040E85FE30E94FF0688237CF1EE
S11305D0C801B70120E03FEF4FE757E40E949F06B0
S11305E01816ECF4C601B50120E030E040E251E415
S11305F00E94A5050E94CF03CB01672B39F020E9A7
S113060031E0F9013197F1F70197D9F71F910F9173
S1130610FF90EF90DF90CF90BF90AF900895C80106
S1130620B7010E94CF03CB010197F1F7EFCF61E04F
S113063070E0F9CF80E061E042E00E94B4020895E6
S113064080E062E041E00E94B402089580E060EC42
S113065041E00E94B4020895CF93DF93C0E0D0E05C
S113066081E060E241E00E94B4022196C031D105EC
S1130670B9F7DF91CF910895682F81E041E00E949E
S1130680B40208951F93CF93DF93EC01688166232E
S113069061F010E081E041E00E94B4021F5FFE01BE
S11306A0E10FF11D60816623A9F7DF91CF911F91BE
S11306B00895882331F480E06CE041E00E94B402A4
S11306C0089580E06EE041E00E94B4020895E2E6FD
S11306D0F0E08081877F8083E1E6F0E080818860BC
S11306E0808380E69AEE0197F1F780E060E347E0CB
S11306F00E94B40280E060E347E00E94B40280E01C
S113070060E347E00E94B40280E068E345E00E94B1
S1130710B40280E068E045E00E94B40280E061E059
S113072045E00E94B40280E066E045E00E94B40225
S113073080E06CE045E00E94B4020895682F81E0F7
S113074040E00E94B402089580E061E040E00E942D
S1130750B402089580E062E040E00E94B40208958B
S113076080E060EC40E00E94B40208959093900011
S113077089B988E18AB986E08093950008955D9BE4
S1130780FECF8CB90895FC018081882339F05D9BEC
S1130790FECF8CB9319680818823C9F70895EF92F2
S11307A0FF920F931F937B018C0120E030E040E027
S11307B05FE40E94CF0688238CF0C801B70120E0D3
S11307C030E040E05FE40E9447050E942F079B0150
S11307D0AC01205030404040504806C0C801B70129
S11307E00E942F079B01AC01B901CA011F910F910F
S11307F0FF90EF900895A0E0B0E0E1E0F4E00C9405
S1130800610ADC012B01FA019C91923008F439C190
S1130810EB018881823008F433C1943069F4843068
S113082009F02FC111969C9111978981981709F4A9
S113083028C1AFE2B1E025C1843009F421C182307E
S1130840A9F4923009F01DC19A01AD0188E0EA01D2
S11308500990AE01E90109929E018150C1F7E201BC
S1130860898111969C918923818308C1923009F46E
S113087007C112962D903C901397EB018A819B81BE
S11308801496AD90BD90CD90DC901797EC80FD80D0
S11308900E811F819101281B390BB90137FF04C058
S11308A066277727621B730B603271050CF061C0F9
S11308B0121613066CF537014801062E04C09694EF
S11308C08794779467940A94D2F721E030E040E06B
S11308D050E004C0220F331F441F551F6A95D2F7FE
S11308E021503040404050402E213F21402351238D
S11308F0211531054105510521F021E030E040E0AA
S113090050E079018A01E628F728082919293CC012
S1130910232BD1F1260E371E35014601062E04C0C5
S113092096948794779467940A94D2F721E030E000
S113093040E050E004C0220F331F441F551F6A9546
S1130940D2F721503040404050402A213B214C21D5
S11309505D21211531054105510521F021E030E0EB
S113096040E050E059016A01A628B728C828D928D0
S11309700BC0821593052CF01C01AA24BB2465012D
S113098003C0EE24FF24870111969C91D201119695
S11309908C91981709F445C0992339F0A80197015F
S11309A02A193B094C095D0906C0A60195012E19B7
S11309B03F09400B510B57FD08C01182338222823C
S11309C024833583468357831DC081E0818333822A
S11309D0228288279927DC01821B930BA40BB50B79
S11309E084839583A683B7830DC0220F331F441FCE
S11309F0551F2483358346835783828193810197CE
S1130A00938382832481358146815781DA01C90128
S1130A100197A109B1098F5F9F4FAF4FBF4328F3DF
S1130A200BC0918333822282EA0CFB1C0C1D1D1D1A
S1130A30E482F5820683178383E0808324813581F1
S1130A404681578157FF1AC0C901AA2797FDA0956F
S1130A50BA2F81709070A070B070569547953795F5
S1130A602795822B932BA42BB52B84839583A68364
S1130A70B78382819381019693838283DF0101C0CE
S1130A80D201CD01CDB7DEB7E2E10C947D0AA0E23C
S1130A90B0E0EDE4F5E00C946D0A69837A838B830E
S1130AA09C832D833E834F835887E9E0EE2EF12CFF
S1130AB0EC0EFD1ECE010196B7010E9420098E01A5
S1130AC00F5E1F4FCE010596B8010E9420098A8946
S1130AD091E089278A8BC701B801AE01475E5F4F59
S1130AE00E94FB030E944B08A096E6E00C94890A3E
S1130AF0A0E2B0E0EEE7F5E00C946D0A69837A8336
S1130B008B839C832D833E834F835887F9E0EF2E9C
S1130B10F12CEC0EFD1ECE010196B7010E942009B6
S1130B208E010F5E1F4FCE010596B8010E94200969
S1130B30C701B801AE01475E5F4F0E94FB030E94EC
S1130B404B08A096E6E00C94890AA0E2B0E0EBEA38
S1130B50F5E00C94610A69837A838B839C832D83EB
S1130B603E834F835887CE010196BE01675F7F4F56
S1130B700E942009CE010596BE016F5E7F4F0E9440
S1130B8020099985923088F089898230C8F09430A0
S1130B9019F4823051F404C0843029F4923081F481
S1130BA08FE291E0C6C0923049F420E09A858A89A8
S1130BB0981321E02A87CE010996BBC0823049F4FC
S1130BC020E09A858A89981321E02A8BCE014196E8
S1130BD0B0C02D843E844F8458886D887E888F8869
S1130BE0988CEE24FF248701AA24BB24650140E0ED
S1130BF050E060E070E0E0E0F0E0C10181709070EE
S1130C00892BE9F0E60CF71C081D191D9A01AB01AC
S1130C102A0D3B1D4C1D5D1D80E090E0A0E0B0E07E
S1130C20E614F7040805190520F481E090E0A0E03B
S1130C30B0E0BA01A901480F591F6A1F7B1FAA0C13
S1130C40BB1CCC1CDD1C97FE08C081E090E0A0E03A
S1130C50B0E0A82AB92ACA2ADB2A3196E032F10583
S1130C6049F0660C771C881C991C56944794379459
S1130C702794C3CFFA85EA892B893C898B859C8587
S1130C80280F391F2E5F3F4F17C0CA018170907023
S1130C90892B61F016950795F794E79480E090E02E
S1130CA0A0E0B0E8E82AF92A0A2B1B2B7695679571
S1130CB0579547952F5F3F4F77FDE7CF0CC0440F03
S1130CC0551F661F771F17FD4160EE0CFF1C001FA8
S1130CD0111F21503040403090E0590790E06907DF
S1130CE090E4790760F32B8F3C8FDB01CA018F7787
S1130CF09070A070B07080349105A105B10561F4C5
S1130D0047FD0AC0E114F1040105110529F0405C16
S1130D105F4F6F4F7F4F40781A8EFE1711F081E0BE
S1130D208A8F4D8F5E8F6F8F78A383E0898FCE017A
S1130D3049960E944B08A096E2E10C947D0AA8E132
S1130D40B0E0E5EAF6E00C946D0A69837A838B835C
S1130D509C832D833E834F83588789E0E82EF12CB2
S1130D60EC0EFD1ECE010196B7010E9420098E01F2
S1130D700F5E1F4FCE010596B8010E942009898598
S1130D80823040F08989823028F0C701B8010E947E
S1130D90980901C08FEF6896E6E00C94890AA8E1EF
S1130DA0B0E0E5EDF6E00C946D0A69837A838B83F9
S1130DB09C832D833E834F83588789E0E82EF12C52
S1130DC0EC0EFD1ECE010196B7010E9420098E0192
S1130DD00F5E1F4FCE010596B8010E942009898538
S1130DE0823040F08989823028F0C701B8010E941E
S1130DF0980901C08FEF6896E6E00C94890AA8E18F
S1130E00B0E0E5E0F7E00C946D0A69837A838B83A4
S1130E109C832D833E834F83588789E0E82EF12CF1
S1130E20EC0EFD1ECE010196B7010E9420098E0131
S1130E300F5E1F4FCE010596B8010E9420098985D7
S1130E40823040F08989823028F0C701B8010E94BD
S1130E50980901C081E06896E6E00C94890AACE048
S1130E60B0E0E5E3F7E00C94710A69837A838B833D
S1130E709C83CE010196BE016B5F7F4F0E942009C7
S1130E808D81823061F1823050F1843021F48E8181
S1130E90882351F12EC02F81388537FD20C06E8103
S1130EA02F3131051CF06623F9F023C08EE190E068
S1130EB0821B930B29853A854B855C8504C0569526
S1130EC04795379527958A95D2F76623B1F05095C3
S1130ED04095309521953F4F4F4F5F4F0EC020E016
S1130EE030E040E050E009C02FEF3FEF4FEF5FE705
S1130EF004C020E030E040E050E8B901CA012C967B
S1130F00E2E00C948D0AA8E0B0E0E9E8F7E00C9484
S1130F10690A7B018C01611571058105910519F43C
S1130F2082E0898360C083E089838EE1C82ED12C5E
S1130F30DC82CB82ED82FE820F831887C801B70161
S1130F400E94FC07FC013197F7FF3BC0222733279F
S1130F502E1B3F0B57016801022E04C0D694C79480
S1130F60B794A7940A94D2F740E050E060E070E0B0
S1130F7081E090E0A0E0B0E004C0880F991FAA1FB0
S1130F80BB1F2A95D2F70197A109B1098E219F2190
S1130F90A023B1230097A105B10521F041E050E061
S1130FA060E070E04A295B296C297D294D835E83CA
S1130FB06F8378878EE190E08E1B9F0B9C838B83DD
S1130FC012C0309781F00E2E04C0EE0CFF1C001FDF
S1130FD0111F0A94D2F7ED82FE820F831887CE1A6E
S1130FE0DF0ADC82CB821A82CE0101960E944B0872
S1130FF02896EAE00C94850AEF92FF920F931F93D0
S11310007B018C0180E0E81680E0F80681E00807A7
S113101080E0180788F48FEFE816F1040105110544
S113102031F028F088E090E0A0E0B0E017C080E064
S113103090E0A0E0B0E012C080E0E81680E0F8069E
S113104080E0080781E0180728F088E190E0A0E03C
S1131050B0E004C080E190E0A0E0B0E020E230E045
S113106040E050E0281B390B4A0B5B0B04C016957B
S11310700795F794E7948A95D2F7F701E95CFE4F58
S11310808081281B310941095109C9011F910F9120
S1131090FF90EF900895DF92EF92FF920F931F93CA
S11310A0FC01E480F58006811781D1808081823043
S11310B048F480E090E0A0E1B0E0E82AF92A0A2BA5
S11310C01B2BA5C0843009F49FC0823021F4EE2488
S11310D0FF24870105C0E114F1040105110519F489
S11310E0E0E0F0E096C0628173819FEF6238790797
S11310F00CF05BC022E83FEF261B370B2A31310589
S11311002CF020E030E040E050E02AC0B801A70114
S1131110022E04C076956795579547950A94D2F7A1
S113112081E090E0A0E0B0E004C0880F991FAA1FFE
S1131130BB1F2A95D2F70197A109B1098E219F21DE
S1131140A023B1230097A105B10521F081E090E02F
S1131150A0E0B0E09A01AB01282B392B4A2B5B2B82
S1131160DA01C9018F779070A070B0708034910556
S1131170A105B10539F427FF09C0205C3F4F4F4F4B
S11311805F4F04C0215C3F4F4F4F5F4FE0E0F0E002
S11311902030A0E03A07A0E04A07A0E45A0710F084
S11311A0E1E0F0E079018A0127C06038710564F557
S11311B0FB01E158FF4FD801C7018F779070A070F1
S11311C0B07080349105A105B10539F4E7FE0DC076
S11311D080E490E0A0E0B0E004C08FE390E0A0E001
S11311E0B0E0E80EF91E0A1F1B1F17FF05C0169575
S11311F00795F794E794319687E016950795F79449
S1131200E7948A95D1F705C0EE24FF248701EFEF18
S1131210F0E06E2F679566276795902F9F77D79498
S1131220DD24D7948E2F8695492F462B582F5D2980
S1131230B701CA011F910F91FF90EF90DF900895BD
S1131240FC01DB01408151812281622F6F7770E0C4
S1131250221F2227221F9381892F880F822B282F58
S113126030E0991F9927991F11969C931197211586
S11312703105A9F5411551056105710511F482E0A7
S113128037C082E89FEF13969C938E9312979A012E
S1131290AB0167E0220F331F441F551F6A95D1F736
S11312A083E08C930DC0220F331F441F551F1296E9
S11312B08D919C911397019713969C938E931297FB
S11312C0203080E0380780E0480780E4580758F36E
S11312D014962D933D934D935C93179708952F3F48
S11312E0310579F4411551056105710519F484E05E
S11312F08C93089564FF03C081E08C9312C01C9208
S113130010C02F57304013963C932E93129783E0CE
S11313108C9387E0440F551F661F771F8A95D1F77A
S1131320706414964D935D936D937C931797089511
S11313301F93DC01FB019C91923008F447C080812B
S1131340823008F443C0943051F411961C918430D7
S113135099F58181682F70E0611B71093FC0843069
S113136021F0923031F48230B9F18181882389F1FE
S11313702DC011961C9111978230F1F081811817BC
S1131380D9F412962D913C911397828193818217FF
S1131390930794F028173907BCF014968D919D910A
S11313A00D90BC91A02D2481358146815781281749
S11313B039074A075B0718F4112341F00AC0821762
S11313C09307A407B50740F4112319F061E070E016
S11313D005C06FEF7FEF02C060E070E0CB011F91AA
S11313E00895991B79E004C0991F961708F0961B7D
S11313F0881F7A95C9F780950895AA1BBB1B51E1F4
S113140007C0AA1FBB1FA617B70710F0A61BB70B70
S1131410881F991F5A95A9F780959095BC01CD0115
S1131420089597FB092E07260AD077FD04D0E5DF3F
S113143006D000201AF4709561957F4F0895F6F751
S1131440909581959F4F089597FB092E05260ED000
S113145057FD04D014D00AD0001C38F450954095A0
S1131460309521953F4F4F4F5F4F0895F6F7909574
S11314708095709561957F4F8F4F9F4F0895A1E29E
S11314801A2EAA1BBB1BFD010DC0AA1FBB1FEE1FFA
S1131490FF1FA217B307E407F50720F0A21BB30B45
S11314A0E40BF50B661F771F881F991F1A9469F7C1
S11314B060957095809590959B01AC01BD01CF011D
S11314C008952F923F924F925F926F927F928F92E4
S11314D09F92AF92BF92CF92DF92EF92FF920F93BF
S11314E01F93CF93DF93CDB7DEB7CA1BDB0B0FB6C9
S11314F0F894DEBF0FBECDBF09942A883988488886
S11315005F846E847D848C849B84AA84B984C8841B
S1131510DF80EE80FD800C811B81AA81B981CE0F12
S1131520D11D0FB6F894DEBF0FBECDBFED010895F7
S1071530F894FFCF59
S113153420202020427562626C65732120202020C3
S113154400546F74616C3A202020202000486F7589
S1131554726C793A202020200054696D65200000C3
S1131564000000000000000001020203030303045E
S1131574040404040404040505050505050505051A
S113158405050505050505060606060606060606FA
S113159406060606060606060606060606060606E3
S11315A406060606060606070707070707070707CA
S11315B407070707070707070707070707070707B3
S11315C407070707070707070707070707070707A3
S11315D40707070707070707070707070707070793
S11315E4070707070707070808080808080808087A
S11315F40808080808080808080808080808080863
S11316040808080808080808080808080808080852
S11316140808080808080808080808080808080842
S11316240808080808080808080808080808080832
S11316340808080808080808080808080808080822
S11316440808080808080808080808080808080812
S11316540808080808080808080808080808080802
S10B1664080808080808080042
S9030000FC
